X 8 X X 2 X 5 6 X
X X X 1 X X X X 7
X X X X X X X X X
X 5 X X 9 X 4 X 8
X X 7 8 X X X X 3
X 9 X X 1 X X 5 X
2 X 4 X X X 8 X X
X 6 X X 8 5 X X X
X X X 2 X X 1 X X

https://www.youtube.com/watch?v=4GVyBiFUNws&ab_channel=CrackingTheCryptic
